module xgame.go_server

go 1.19

require (
	github.com/go-sql-driver/mysql v1.6.0
	github.com/gorilla/websocket v1.4.2
	github.com/pkg/errors v0.9.1
	go.etcd.io/etcd/client/v3 v3.5.5
	google.golang.org/protobuf v1.27.1
)

require (
	github.com/coreos/go-semver v0.3.0 // indirect
	github.com/coreos/go-systemd/v22 v22.3.2 // indirect
	github.com/gogo/protobuf v1.3.2 // indirect
	github.com/golang/protobuf v1.5.2 // indirect
	go.etcd.io/etcd/api/v3 v3.5.5 // indirect
	go.etcd.io/etcd/client/pkg/v3 v3.5.5 // indirect
	go.uber.org/atomic v1.7.0 // indirect
	go.uber.org/multierr v1.6.0 // indirect
	go.uber.org/zap v1.17.0 // indirect
	golang.org/x/net v0.0.0-20210405180319-a5a99cb37ef4 // indirect
	golang.org/x/sys v0.0.0-20210603081109-ebe580a85c40 // indirect
	golang.org/x/text v0.3.5 // indirect
	google.golang.org/genproto v0.0.0-20210602131652-f16073e35f0c // indirect
	google.golang.org/grpc v1.41.0 // indirect
)
